// Jest Snapshot v1, https://goo.gl/fbAQLP

exports[`DependenciesTable component given a list of dependencies (loaded) matches the snapshot 1`] = `
<div>
  <div
    class="gl-responsive-table-row table-row-header text-2 bg-secondary-50 px-2"
    role="row"
  >
    <div
      class="table-section section-20"
      role="rowheader"
    >
      
      Status
    
    </div>
    <div
      class="table-section section-20"
      role="rowheader"
    >
      
      Component
    
    </div>
    <div
      class="table-section section-10"
      role="rowheader"
    >
      
      Version
    
    </div>
    <div
      class="table-section section-20"
      role="rowheader"
    >
      
      Packager
    
    </div>
    <div
      class="table-section section-15"
      role="rowheader"
    >
      
      Location
    
    </div>
    <div
      class="table-section section-15"
      role="rowheader"
    >
      
      License
    
    </div>
  </div>
   
  <dependenciestablerow-stub
    dependency="[object Object]"
  />
  <dependenciestablerow-stub
    dependency="[object Object]"
  />
</div>
`;

exports[`DependenciesTable component given a list of dependencies (loading) matches the snapshot 1`] = `
<div>
  <div
    class="gl-responsive-table-row table-row-header text-2 bg-secondary-50 px-2"
    role="row"
  >
    <div
      class="table-section section-20"
      role="rowheader"
    >
      
      Status
    
    </div>
    <div
      class="table-section section-20"
      role="rowheader"
    >
      
      Component
    
    </div>
    <div
      class="table-section section-10"
      role="rowheader"
    >
      
      Version
    
    </div>
    <div
      class="table-section section-20"
      role="rowheader"
    >
      
      Packager
    
    </div>
    <div
      class="table-section section-15"
      role="rowheader"
    >
      
      Location
    
    </div>
    <div
      class="table-section section-15"
      role="rowheader"
    >
      
      License
    
    </div>
  </div>
   
  <dependenciestablerow-stub
    dependency="[object Object]"
    isloading="true"
  />
  <dependenciestablerow-stub
    dependency="[object Object]"
    isloading="true"
  />
</div>
`;

exports[`DependenciesTable component given an empty list of dependencies matches the snapshot 1`] = `
<div>
  <div
    class="gl-responsive-table-row table-row-header text-2 bg-secondary-50 px-2"
    role="row"
  >
    <div
      class="table-section section-20"
      role="rowheader"
    >
      
      Status
    
    </div>
    <div
      class="table-section section-20"
      role="rowheader"
    >
      
      Component
    
    </div>
    <div
      class="table-section section-10"
      role="rowheader"
    >
      
      Version
    
    </div>
    <div
      class="table-section section-20"
      role="rowheader"
    >
      
      Packager
    
    </div>
    <div
      class="table-section section-15"
      role="rowheader"
    >
      
      Location
    
    </div>
    <div
      class="table-section section-15"
      role="rowheader"
    >
      
      License
    
    </div>
  </div>
   
</div>
`;
